; ModuleID = 'simple_loop.ll'
source_filename = "simple_loop.c"
target datalayout = "e-m:e-i64:64-f80:128-n8:16:32:64-S128"
target triple = "x86_64-pc-linux-gnu"

; Function Attrs: noinline nounwind sspstrong uwtable
define dso_local i64 @loop_until(i64 %bound) #0 {
entry:
  %cmp = icmp eq i64 %bound, 3
  br i1 %cmp, label %if.then, label %if.end

if.then:                                          ; preds = %entry
  br label %return

if.end:                                           ; preds = %entry
  br label %while.cond

while.cond:                                       ; preds = %while.body, %if.end
  %a.0 = phi i32 [ 1, %if.end ], [ %inc, %while.body ]
  %conv = sext i32 %a.0 to i64
  %cmp1 = icmp slt i64 %conv, %bound
  br i1 %cmp1, label %while.body, label %while.end

while.body:                                       ; preds = %while.cond
  %inc = add nsw i32 %a.0, 1
  br label %while.cond

while.end:                                        ; preds = %while.cond
  br label %return

return:                                           ; preds = %while.end, %if.then
  %retval.0 = phi i64 [ 7, %if.then ], [ 1, %while.end ]
  ret i64 %retval.0
}

; Function Attrs: noinline nounwind sspstrong uwtable
define dso_local void @expensive_function() #0 {
entry:
  %call = call i64 @loop_until(i64 1000000)
  ret void
}

; Function Attrs: noinline nounwind sspstrong uwtable
define dso_local void @cheap_function() #0 {
entry:
  %conv = sext i32 10 to i64
  %call = call i64 @loop_until(i64 %conv)
  ret void
}

; Function Attrs: noinline nounwind sspstrong uwtable
define dso_local void @func(i32 %a) #0 {
entry:
  %cmp = icmp eq i32 %a, 1
  br i1 %cmp, label %if.then, label %if.else

if.then:                                          ; preds = %entry
  call void @expensive_function()
  br label %if.end

if.else:                                          ; preds = %entry
  call void @cheap_function()
  br label %if.end

if.end:                                           ; preds = %if.else, %if.then
  ret void
}

attributes #0 = { noinline nounwind sspstrong uwtable "correctly-rounded-divide-sqrt-fp-math"="false" "disable-tail-calls"="false" "less-precise-fpmad"="false" "min-legal-vector-width"="0" "no-frame-pointer-elim"="true" "no-frame-pointer-elim-non-leaf" "no-infs-fp-math"="false" "no-jump-tables"="false" "no-nans-fp-math"="false" "no-signed-zeros-fp-math"="false" "no-trapping-math"="false" "stack-protector-buffer-size"="8" "target-cpu"="x86-64" "target-features"="+cx8,+fxsr,+mmx,+sse,+sse2,+x87" "unsafe-fp-math"="false" "use-soft-float"="false" }

!llvm.module.flags = !{!0, !1, !2}
!llvm.ident = !{!3}

!0 = !{i32 1, !"wchar_size", i32 4}
!1 = !{i32 7, !"PIC Level", i32 2}
!2 = !{i32 7, !"PIE Level", i32 2}
!3 = !{!"clang version 9.0.1 "}
