; ModuleID = 'minimum.c'
source_filename = "minimum.c"
target datalayout = "e-m:e-i64:64-f80:128-n8:16:32:64-S128"
target triple = "x86_64-pc-linux-gnu"

; Function Attrs: noinline nounwind sspstrong uwtable
define dso_local i32 @main(i32 %argc, i8** %argv) #0 {
entry:
  %retval = alloca i32, align 4
  %argc.addr = alloca i32, align 4
  %argv.addr = alloca i8**, align 8
  %a = alloca i32, align 4
  %bound = alloca i32, align 4
  store i32 0, i32* %retval, align 4
  store i32 %argc, i32* %argc.addr, align 4
  store i8** %argv, i8*** %argv.addr, align 8
  store i32 1, i32* %a, align 4
  store i32 1000, i32* %bound, align 4
  br label %while.cond

while.cond:                                       ; preds = %if.end, %entry
  %0 = load i32, i32* %a, align 4
  %1 = load i32, i32* %bound, align 4
  %cmp = icmp slt i32 %0, %1
  br i1 %cmp, label %while.body, label %while.end

while.body:                                       ; preds = %while.cond
  %2 = load i32, i32* %bound, align 4
  %rem = srem i32 %2, 2
  %cmp1 = icmp eq i32 %rem, 0
  br i1 %cmp1, label %if.then, label %if.else

if.then:                                          ; preds = %while.body
  %3 = load i32, i32* %bound, align 4
  %add = add nsw i32 %3, 1
  store i32 %add, i32* %bound, align 4
  br label %if.end

if.else:                                          ; preds = %while.body
  %4 = load i32, i32* %bound, align 4
  %add2 = add nsw i32 %4, 3
  store i32 %add2, i32* %bound, align 4
  br label %if.end

if.end:                                           ; preds = %if.else, %if.then
  br label %while.cond

while.end:                                        ; preds = %while.cond
  %5 = load i32, i32* %retval, align 4
  ret i32 %5
}

attributes #0 = { noinline nounwind sspstrong uwtable "correctly-rounded-divide-sqrt-fp-math"="false" "disable-tail-calls"="false" "less-precise-fpmad"="false" "min-legal-vector-width"="0" "no-frame-pointer-elim"="true" "no-frame-pointer-elim-non-leaf" "no-infs-fp-math"="false" "no-jump-tables"="false" "no-nans-fp-math"="false" "no-signed-zeros-fp-math"="false" "no-trapping-math"="false" "stack-protector-buffer-size"="8" "target-cpu"="x86-64" "target-features"="+cx8,+fxsr,+mmx,+sse,+sse2,+x87" "unsafe-fp-math"="false" "use-soft-float"="false" }

!llvm.module.flags = !{!0, !1, !2}
!llvm.ident = !{!3}

!0 = !{i32 1, !"wchar_size", i32 4}
!1 = !{i32 7, !"PIC Level", i32 2}
!2 = !{i32 7, !"PIE Level", i32 2}
!3 = !{!"clang version 9.0.1 "}
