; ModuleID = 'struct.c'
source_filename = "struct.c"
target datalayout = "e-m:e-i64:64-f80:128-n8:16:32:64-S128"
target triple = "x86_64-pc-linux-gnu"

%struct.TestStruct = type { i64, i64 }

; Function Attrs: noinline nounwind sspstrong uwtable
define dso_local i32 @main(i32 %argc, i8** %argv) #0 {
entry:
  %retval = alloca i32, align 4
  %argc.addr = alloca i32, align 4
  %argv.addr = alloca i8**, align 8
  %b = alloca %struct.TestStruct, align 8
  store i32 0, i32* %retval, align 4
  store i32 %argc, i32* %argc.addr, align 4
  store i8** %argv, i8*** %argv.addr, align 8
  %x = getelementptr inbounds %struct.TestStruct, %struct.TestStruct* %b, i32 0, i32 0
  store i64 1, i64* %x, align 8
  %y = getelementptr inbounds %struct.TestStruct, %struct.TestStruct* %b, i32 0, i32 1
  store i64 2, i64* %y, align 8
  %y1 = getelementptr inbounds %struct.TestStruct, %struct.TestStruct* %b, i32 0, i32 1
  %0 = load i64, i64* %y1, align 8
  %conv = trunc i64 %0 to i32
  ret i32 %conv
}

attributes #0 = { noinline nounwind sspstrong uwtable "correctly-rounded-divide-sqrt-fp-math"="false" "disable-tail-calls"="false" "less-precise-fpmad"="false" "min-legal-vector-width"="0" "no-frame-pointer-elim"="true" "no-frame-pointer-elim-non-leaf" "no-infs-fp-math"="false" "no-jump-tables"="false" "no-nans-fp-math"="false" "no-signed-zeros-fp-math"="false" "no-trapping-math"="false" "stack-protector-buffer-size"="8" "target-cpu"="x86-64" "target-features"="+cx8,+fxsr,+mmx,+sse,+sse2,+x87" "unsafe-fp-math"="false" "use-soft-float"="false" }

!llvm.module.flags = !{!0, !1, !2}
!llvm.ident = !{!3}

!0 = !{i32 1, !"wchar_size", i32 4}
!1 = !{i32 7, !"PIC Level", i32 2}
!2 = !{i32 7, !"PIE Level", i32 2}
!3 = !{!"clang version 9.0.1 "}
